{ "frames": {
   "/home/alexjgriffith/Documents/lisp-game-jame-2020-spring/Art/sprite-sheets/samuel.aseprite": {
    "frame": { "x": 0, "y": 0, "w": 32, "h": 32 },
    "rotated": false,
    "trimmed": false,
    "spriteSourceSize": { "x": 0, "y": 0, "w": 32, "h": 32 },
    "sourceSize": { "w": 32, "h": 32 },
    "duration": 200
   },
   "/home/alexjgriffith/Documents/lisp-game-jame-2020-spring/Art/sprite-sheets/samuel.aseprite": {
    "frame": { "x": 32, "y": 0, "w": 32, "h": 32 },
    "rotated": false,
    "trimmed": false,
    "spriteSourceSize": { "x": 0, "y": 0, "w": 32, "h": 32 },
    "sourceSize": { "w": 32, "h": 32 },
    "duration": 200
   },
   "/home/alexjgriffith/Documents/lisp-game-jame-2020-spring/Art/sprite-sheets/samuel.aseprite": {
    "frame": { "x": 64, "y": 0, "w": 32, "h": 32 },
    "rotated": false,
    "trimmed": false,
    "spriteSourceSize": { "x": 0, "y": 0, "w": 32, "h": 32 },
    "sourceSize": { "w": 32, "h": 32 },
    "duration": 200
   },
   "/home/alexjgriffith/Documents/lisp-game-jame-2020-spring/Art/sprite-sheets/samuel.aseprite": {
    "frame": { "x": 96, "y": 0, "w": 32, "h": 32 },
    "rotated": false,
    "trimmed": false,
    "spriteSourceSize": { "x": 0, "y": 0, "w": 32, "h": 32 },
    "sourceSize": { "w": 32, "h": 32 },
    "duration": 300
   },
   "/home/alexjgriffith/Documents/lisp-game-jame-2020-spring/Art/sprite-sheets/samuel.aseprite": {
    "frame": { "x": 128, "y": 0, "w": 32, "h": 32 },
    "rotated": false,
    "trimmed": false,
    "spriteSourceSize": { "x": 0, "y": 0, "w": 32, "h": 32 },
    "sourceSize": { "w": 32, "h": 32 },
    "duration": 200
   },
   "/home/alexjgriffith/Documents/lisp-game-jame-2020-spring/Art/sprite-sheets/samuel.aseprite": {
    "frame": { "x": 160, "y": 0, "w": 32, "h": 32 },
    "rotated": false,
    "trimmed": false,
    "spriteSourceSize": { "x": 0, "y": 0, "w": 32, "h": 32 },
    "sourceSize": { "w": 32, "h": 32 },
    "duration": 300
   },
   "/home/alexjgriffith/Documents/lisp-game-jame-2020-spring/Art/sprite-sheets/samuel.aseprite": {
    "frame": { "x": 192, "y": 0, "w": 32, "h": 32 },
    "rotated": false,
    "trimmed": false,
    "spriteSourceSize": { "x": 0, "y": 0, "w": 32, "h": 32 },
    "sourceSize": { "w": 32, "h": 32 },
    "duration": 300
   },
   "/home/alexjgriffith/Documents/lisp-game-jame-2020-spring/Art/sprite-sheets/samuel.aseprite": {
    "frame": { "x": 224, "y": 0, "w": 32, "h": 32 },
    "rotated": false,
    "trimmed": false,
    "spriteSourceSize": { "x": 0, "y": 0, "w": 32, "h": 32 },
    "sourceSize": { "w": 32, "h": 32 },
    "duration": 200
   },
   "/home/alexjgriffith/Documents/lisp-game-jame-2020-spring/Art/sprite-sheets/samuel.aseprite": {
    "frame": { "x": 256, "y": 0, "w": 32, "h": 32 },
    "rotated": false,
    "trimmed": false,
    "spriteSourceSize": { "x": 0, "y": 0, "w": 32, "h": 32 },
    "sourceSize": { "w": 32, "h": 32 },
    "duration": 300
   },
   "/home/alexjgriffith/Documents/lisp-game-jame-2020-spring/Art/sprite-sheets/samuel.aseprite": {
    "frame": { "x": 288, "y": 0, "w": 32, "h": 32 },
    "rotated": false,
    "trimmed": false,
    "spriteSourceSize": { "x": 0, "y": 0, "w": 32, "h": 32 },
    "sourceSize": { "w": 32, "h": 32 },
    "duration": 300
   },
   "/home/alexjgriffith/Documents/lisp-game-jame-2020-spring/Art/sprite-sheets/samuel.aseprite": {
    "frame": { "x": 320, "y": 0, "w": 32, "h": 32 },
    "rotated": false,
    "trimmed": false,
    "spriteSourceSize": { "x": 0, "y": 0, "w": 32, "h": 32 },
    "sourceSize": { "w": 32, "h": 32 },
    "duration": 200
   },
   "/home/alexjgriffith/Documents/lisp-game-jame-2020-spring/Art/sprite-sheets/samuel.aseprite": {
    "frame": { "x": 352, "y": 0, "w": 32, "h": 32 },
    "rotated": false,
    "trimmed": false,
    "spriteSourceSize": { "x": 0, "y": 0, "w": 32, "h": 32 },
    "sourceSize": { "w": 32, "h": 32 },
    "duration": 300
   },
   "/home/alexjgriffith/Documents/lisp-game-jame-2020-spring/Art/sprite-sheets/samuel.aseprite": {
    "frame": { "x": 384, "y": 0, "w": 32, "h": 32 },
    "rotated": false,
    "trimmed": false,
    "spriteSourceSize": { "x": 0, "y": 0, "w": 32, "h": 32 },
    "sourceSize": { "w": 32, "h": 32 },
    "duration": 200
   },
   "/home/alexjgriffith/Documents/lisp-game-jame-2020-spring/Art/sprite-sheets/samuel.aseprite": {
    "frame": { "x": 416, "y": 0, "w": 32, "h": 32 },
    "rotated": false,
    "trimmed": false,
    "spriteSourceSize": { "x": 0, "y": 0, "w": 32, "h": 32 },
    "sourceSize": { "w": 32, "h": 32 },
    "duration": 300
   },
   "/home/alexjgriffith/Documents/lisp-game-jame-2020-spring/Art/sprite-sheets/samuel.aseprite": {
    "frame": { "x": 448, "y": 0, "w": 32, "h": 32 },
    "rotated": false,
    "trimmed": false,
    "spriteSourceSize": { "x": 0, "y": 0, "w": 32, "h": 32 },
    "sourceSize": { "w": 32, "h": 32 },
    "duration": 100
   },
   "/home/alexjgriffith/Documents/lisp-game-jame-2020-spring/Art/sprite-sheets/samuel.aseprite": {
    "frame": { "x": 480, "y": 0, "w": 32, "h": 32 },
    "rotated": false,
    "trimmed": false,
    "spriteSourceSize": { "x": 0, "y": 0, "w": 32, "h": 32 },
    "sourceSize": { "w": 32, "h": 32 },
    "duration": 200
   },
   "/home/alexjgriffith/Documents/lisp-game-jame-2020-spring/Art/sprite-sheets/samuel.aseprite": {
    "frame": { "x": 512, "y": 0, "w": 32, "h": 32 },
    "rotated": false,
    "trimmed": false,
    "spriteSourceSize": { "x": 0, "y": 0, "w": 32, "h": 32 },
    "sourceSize": { "w": 32, "h": 32 },
    "duration": 150
   },
   "/home/alexjgriffith/Documents/lisp-game-jame-2020-spring/Art/sprite-sheets/samuel.aseprite": {
    "frame": { "x": 544, "y": 0, "w": 32, "h": 32 },
    "rotated": false,
    "trimmed": false,
    "spriteSourceSize": { "x": 0, "y": 0, "w": 32, "h": 32 },
    "sourceSize": { "w": 32, "h": 32 },
    "duration": 100
   },
   "/home/alexjgriffith/Documents/lisp-game-jame-2020-spring/Art/sprite-sheets/samuel.aseprite": {
    "frame": { "x": 576, "y": 0, "w": 32, "h": 32 },
    "rotated": false,
    "trimmed": false,
    "spriteSourceSize": { "x": 0, "y": 0, "w": 32, "h": 32 },
    "sourceSize": { "w": 32, "h": 32 },
    "duration": 100
   },
   "/home/alexjgriffith/Documents/lisp-game-jame-2020-spring/Art/sprite-sheets/samuel.aseprite": {
    "frame": { "x": 608, "y": 0, "w": 32, "h": 32 },
    "rotated": false,
    "trimmed": false,
    "spriteSourceSize": { "x": 0, "y": 0, "w": 32, "h": 32 },
    "sourceSize": { "w": 32, "h": 32 },
    "duration": 300
   },
   "/home/alexjgriffith/Documents/lisp-game-jame-2020-spring/Art/sprite-sheets/samuel.aseprite": {
    "frame": { "x": 640, "y": 0, "w": 32, "h": 32 },
    "rotated": false,
    "trimmed": false,
    "spriteSourceSize": { "x": 0, "y": 0, "w": 32, "h": 32 },
    "sourceSize": { "w": 32, "h": 32 },
    "duration": 300
   },
   "/home/alexjgriffith/Documents/lisp-game-jame-2020-spring/Art/sprite-sheets/samuel.aseprite": {
    "frame": { "x": 672, "y": 0, "w": 32, "h": 32 },
    "rotated": false,
    "trimmed": false,
    "spriteSourceSize": { "x": 0, "y": 0, "w": 32, "h": 32 },
    "sourceSize": { "w": 32, "h": 32 },
    "duration": 100
   },
   "/home/alexjgriffith/Documents/lisp-game-jame-2020-spring/Art/sprite-sheets/samuel.aseprite": {
    "frame": { "x": 0, "y": 32, "w": 32, "h": 32 },
    "rotated": false,
    "trimmed": false,
    "spriteSourceSize": { "x": 0, "y": 0, "w": 32, "h": 32 },
    "sourceSize": { "w": 32, "h": 32 },
    "duration": 200
   },
   "/home/alexjgriffith/Documents/lisp-game-jame-2020-spring/Art/sprite-sheets/samuel.aseprite": {
    "frame": { "x": 32, "y": 32, "w": 32, "h": 32 },
    "rotated": false,
    "trimmed": false,
    "spriteSourceSize": { "x": 0, "y": 0, "w": 32, "h": 32 },
    "sourceSize": { "w": 32, "h": 32 },
    "duration": 200
   },
   "/home/alexjgriffith/Documents/lisp-game-jame-2020-spring/Art/sprite-sheets/samuel.aseprite": {
    "frame": { "x": 64, "y": 32, "w": 32, "h": 32 },
    "rotated": false,
    "trimmed": false,
    "spriteSourceSize": { "x": 0, "y": 0, "w": 32, "h": 32 },
    "sourceSize": { "w": 32, "h": 32 },
    "duration": 200
   },
   "/home/alexjgriffith/Documents/lisp-game-jame-2020-spring/Art/sprite-sheets/samuel.aseprite": {
    "frame": { "x": 96, "y": 32, "w": 32, "h": 32 },
    "rotated": false,
    "trimmed": false,
    "spriteSourceSize": { "x": 0, "y": 0, "w": 32, "h": 32 },
    "sourceSize": { "w": 32, "h": 32 },
    "duration": 300
   },
   "/home/alexjgriffith/Documents/lisp-game-jame-2020-spring/Art/sprite-sheets/samuel.aseprite": {
    "frame": { "x": 128, "y": 32, "w": 32, "h": 32 },
    "rotated": false,
    "trimmed": false,
    "spriteSourceSize": { "x": 0, "y": 0, "w": 32, "h": 32 },
    "sourceSize": { "w": 32, "h": 32 },
    "duration": 200
   },
   "/home/alexjgriffith/Documents/lisp-game-jame-2020-spring/Art/sprite-sheets/samuel.aseprite": {
    "frame": { "x": 160, "y": 32, "w": 32, "h": 32 },
    "rotated": false,
    "trimmed": false,
    "spriteSourceSize": { "x": 0, "y": 0, "w": 32, "h": 32 },
    "sourceSize": { "w": 32, "h": 32 },
    "duration": 300
   },
   "/home/alexjgriffith/Documents/lisp-game-jame-2020-spring/Art/sprite-sheets/samuel.aseprite": {
    "frame": { "x": 192, "y": 32, "w": 32, "h": 32 },
    "rotated": false,
    "trimmed": false,
    "spriteSourceSize": { "x": 0, "y": 0, "w": 32, "h": 32 },
    "sourceSize": { "w": 32, "h": 32 },
    "duration": 300
   },
   "/home/alexjgriffith/Documents/lisp-game-jame-2020-spring/Art/sprite-sheets/samuel.aseprite": {
    "frame": { "x": 224, "y": 32, "w": 32, "h": 32 },
    "rotated": false,
    "trimmed": false,
    "spriteSourceSize": { "x": 0, "y": 0, "w": 32, "h": 32 },
    "sourceSize": { "w": 32, "h": 32 },
    "duration": 200
   },
   "/home/alexjgriffith/Documents/lisp-game-jame-2020-spring/Art/sprite-sheets/samuel.aseprite": {
    "frame": { "x": 256, "y": 32, "w": 32, "h": 32 },
    "rotated": false,
    "trimmed": false,
    "spriteSourceSize": { "x": 0, "y": 0, "w": 32, "h": 32 },
    "sourceSize": { "w": 32, "h": 32 },
    "duration": 300
   },
   "/home/alexjgriffith/Documents/lisp-game-jame-2020-spring/Art/sprite-sheets/samuel.aseprite": {
    "frame": { "x": 288, "y": 32, "w": 32, "h": 32 },
    "rotated": false,
    "trimmed": false,
    "spriteSourceSize": { "x": 0, "y": 0, "w": 32, "h": 32 },
    "sourceSize": { "w": 32, "h": 32 },
    "duration": 300
   },
   "/home/alexjgriffith/Documents/lisp-game-jame-2020-spring/Art/sprite-sheets/samuel.aseprite": {
    "frame": { "x": 320, "y": 32, "w": 32, "h": 32 },
    "rotated": false,
    "trimmed": false,
    "spriteSourceSize": { "x": 0, "y": 0, "w": 32, "h": 32 },
    "sourceSize": { "w": 32, "h": 32 },
    "duration": 200
   },
   "/home/alexjgriffith/Documents/lisp-game-jame-2020-spring/Art/sprite-sheets/samuel.aseprite": {
    "frame": { "x": 352, "y": 32, "w": 32, "h": 32 },
    "rotated": false,
    "trimmed": false,
    "spriteSourceSize": { "x": 0, "y": 0, "w": 32, "h": 32 },
    "sourceSize": { "w": 32, "h": 32 },
    "duration": 300
   },
   "/home/alexjgriffith/Documents/lisp-game-jame-2020-spring/Art/sprite-sheets/samuel.aseprite": {
    "frame": { "x": 384, "y": 32, "w": 32, "h": 32 },
    "rotated": false,
    "trimmed": false,
    "spriteSourceSize": { "x": 0, "y": 0, "w": 32, "h": 32 },
    "sourceSize": { "w": 32, "h": 32 },
    "duration": 200
   },
   "/home/alexjgriffith/Documents/lisp-game-jame-2020-spring/Art/sprite-sheets/samuel.aseprite": {
    "frame": { "x": 416, "y": 32, "w": 32, "h": 32 },
    "rotated": false,
    "trimmed": false,
    "spriteSourceSize": { "x": 0, "y": 0, "w": 32, "h": 32 },
    "sourceSize": { "w": 32, "h": 32 },
    "duration": 300
   },
   "/home/alexjgriffith/Documents/lisp-game-jame-2020-spring/Art/sprite-sheets/samuel.aseprite": {
    "frame": { "x": 448, "y": 32, "w": 32, "h": 32 },
    "rotated": false,
    "trimmed": false,
    "spriteSourceSize": { "x": 0, "y": 0, "w": 32, "h": 32 },
    "sourceSize": { "w": 32, "h": 32 },
    "duration": 100
   },
   "/home/alexjgriffith/Documents/lisp-game-jame-2020-spring/Art/sprite-sheets/samuel.aseprite": {
    "frame": { "x": 480, "y": 32, "w": 32, "h": 32 },
    "rotated": false,
    "trimmed": false,
    "spriteSourceSize": { "x": 0, "y": 0, "w": 32, "h": 32 },
    "sourceSize": { "w": 32, "h": 32 },
    "duration": 200
   },
   "/home/alexjgriffith/Documents/lisp-game-jame-2020-spring/Art/sprite-sheets/samuel.aseprite": {
    "frame": { "x": 512, "y": 32, "w": 32, "h": 32 },
    "rotated": false,
    "trimmed": false,
    "spriteSourceSize": { "x": 0, "y": 0, "w": 32, "h": 32 },
    "sourceSize": { "w": 32, "h": 32 },
    "duration": 150
   },
   "/home/alexjgriffith/Documents/lisp-game-jame-2020-spring/Art/sprite-sheets/samuel.aseprite": {
    "frame": { "x": 544, "y": 32, "w": 32, "h": 32 },
    "rotated": false,
    "trimmed": false,
    "spriteSourceSize": { "x": 0, "y": 0, "w": 32, "h": 32 },
    "sourceSize": { "w": 32, "h": 32 },
    "duration": 100
   },
   "/home/alexjgriffith/Documents/lisp-game-jame-2020-spring/Art/sprite-sheets/samuel.aseprite": {
    "frame": { "x": 576, "y": 32, "w": 32, "h": 32 },
    "rotated": false,
    "trimmed": false,
    "spriteSourceSize": { "x": 0, "y": 0, "w": 32, "h": 32 },
    "sourceSize": { "w": 32, "h": 32 },
    "duration": 100
   },
   "/home/alexjgriffith/Documents/lisp-game-jame-2020-spring/Art/sprite-sheets/samuel.aseprite": {
    "frame": { "x": 608, "y": 32, "w": 32, "h": 32 },
    "rotated": false,
    "trimmed": false,
    "spriteSourceSize": { "x": 0, "y": 0, "w": 32, "h": 32 },
    "sourceSize": { "w": 32, "h": 32 },
    "duration": 300
   },
   "/home/alexjgriffith/Documents/lisp-game-jame-2020-spring/Art/sprite-sheets/samuel.aseprite": {
    "frame": { "x": 640, "y": 32, "w": 32, "h": 32 },
    "rotated": false,
    "trimmed": false,
    "spriteSourceSize": { "x": 0, "y": 0, "w": 32, "h": 32 },
    "sourceSize": { "w": 32, "h": 32 },
    "duration": 300
   },
   "/home/alexjgriffith/Documents/lisp-game-jame-2020-spring/Art/sprite-sheets/samuel.aseprite": {
    "frame": { "x": 672, "y": 32, "w": 32, "h": 32 },
    "rotated": false,
    "trimmed": false,
    "spriteSourceSize": { "x": 0, "y": 0, "w": 32, "h": 32 },
    "sourceSize": { "w": 32, "h": 32 },
    "duration": 100
   },
   "/home/alexjgriffith/Documents/lisp-game-jame-2020-spring/Art/sprite-sheets/samuel.aseprite": {
    "frame": { "x": 0, "y": 64, "w": 32, "h": 32 },
    "rotated": false,
    "trimmed": false,
    "spriteSourceSize": { "x": 0, "y": 0, "w": 32, "h": 32 },
    "sourceSize": { "w": 32, "h": 32 },
    "duration": 200
   },
   "/home/alexjgriffith/Documents/lisp-game-jame-2020-spring/Art/sprite-sheets/samuel.aseprite": {
    "frame": { "x": 32, "y": 64, "w": 32, "h": 32 },
    "rotated": false,
    "trimmed": false,
    "spriteSourceSize": { "x": 0, "y": 0, "w": 32, "h": 32 },
    "sourceSize": { "w": 32, "h": 32 },
    "duration": 200
   },
   "/home/alexjgriffith/Documents/lisp-game-jame-2020-spring/Art/sprite-sheets/samuel.aseprite": {
    "frame": { "x": 64, "y": 64, "w": 32, "h": 32 },
    "rotated": false,
    "trimmed": false,
    "spriteSourceSize": { "x": 0, "y": 0, "w": 32, "h": 32 },
    "sourceSize": { "w": 32, "h": 32 },
    "duration": 200
   },
   "/home/alexjgriffith/Documents/lisp-game-jame-2020-spring/Art/sprite-sheets/samuel.aseprite": {
    "frame": { "x": 96, "y": 64, "w": 32, "h": 32 },
    "rotated": false,
    "trimmed": false,
    "spriteSourceSize": { "x": 0, "y": 0, "w": 32, "h": 32 },
    "sourceSize": { "w": 32, "h": 32 },
    "duration": 300
   },
   "/home/alexjgriffith/Documents/lisp-game-jame-2020-spring/Art/sprite-sheets/samuel.aseprite": {
    "frame": { "x": 128, "y": 64, "w": 32, "h": 32 },
    "rotated": false,
    "trimmed": false,
    "spriteSourceSize": { "x": 0, "y": 0, "w": 32, "h": 32 },
    "sourceSize": { "w": 32, "h": 32 },
    "duration": 200
   },
   "/home/alexjgriffith/Documents/lisp-game-jame-2020-spring/Art/sprite-sheets/samuel.aseprite": {
    "frame": { "x": 160, "y": 64, "w": 32, "h": 32 },
    "rotated": false,
    "trimmed": false,
    "spriteSourceSize": { "x": 0, "y": 0, "w": 32, "h": 32 },
    "sourceSize": { "w": 32, "h": 32 },
    "duration": 300
   },
   "/home/alexjgriffith/Documents/lisp-game-jame-2020-spring/Art/sprite-sheets/samuel.aseprite": {
    "frame": { "x": 192, "y": 64, "w": 32, "h": 32 },
    "rotated": false,
    "trimmed": false,
    "spriteSourceSize": { "x": 0, "y": 0, "w": 32, "h": 32 },
    "sourceSize": { "w": 32, "h": 32 },
    "duration": 300
   },
   "/home/alexjgriffith/Documents/lisp-game-jame-2020-spring/Art/sprite-sheets/samuel.aseprite": {
    "frame": { "x": 224, "y": 64, "w": 32, "h": 32 },
    "rotated": false,
    "trimmed": false,
    "spriteSourceSize": { "x": 0, "y": 0, "w": 32, "h": 32 },
    "sourceSize": { "w": 32, "h": 32 },
    "duration": 200
   },
   "/home/alexjgriffith/Documents/lisp-game-jame-2020-spring/Art/sprite-sheets/samuel.aseprite": {
    "frame": { "x": 256, "y": 64, "w": 32, "h": 32 },
    "rotated": false,
    "trimmed": false,
    "spriteSourceSize": { "x": 0, "y": 0, "w": 32, "h": 32 },
    "sourceSize": { "w": 32, "h": 32 },
    "duration": 300
   },
   "/home/alexjgriffith/Documents/lisp-game-jame-2020-spring/Art/sprite-sheets/samuel.aseprite": {
    "frame": { "x": 288, "y": 64, "w": 32, "h": 32 },
    "rotated": false,
    "trimmed": false,
    "spriteSourceSize": { "x": 0, "y": 0, "w": 32, "h": 32 },
    "sourceSize": { "w": 32, "h": 32 },
    "duration": 300
   },
   "/home/alexjgriffith/Documents/lisp-game-jame-2020-spring/Art/sprite-sheets/samuel.aseprite": {
    "frame": { "x": 320, "y": 64, "w": 32, "h": 32 },
    "rotated": false,
    "trimmed": false,
    "spriteSourceSize": { "x": 0, "y": 0, "w": 32, "h": 32 },
    "sourceSize": { "w": 32, "h": 32 },
    "duration": 200
   },
   "/home/alexjgriffith/Documents/lisp-game-jame-2020-spring/Art/sprite-sheets/samuel.aseprite": {
    "frame": { "x": 352, "y": 64, "w": 32, "h": 32 },
    "rotated": false,
    "trimmed": false,
    "spriteSourceSize": { "x": 0, "y": 0, "w": 32, "h": 32 },
    "sourceSize": { "w": 32, "h": 32 },
    "duration": 300
   },
   "/home/alexjgriffith/Documents/lisp-game-jame-2020-spring/Art/sprite-sheets/samuel.aseprite": {
    "frame": { "x": 384, "y": 64, "w": 32, "h": 32 },
    "rotated": false,
    "trimmed": false,
    "spriteSourceSize": { "x": 0, "y": 0, "w": 32, "h": 32 },
    "sourceSize": { "w": 32, "h": 32 },
    "duration": 200
   },
   "/home/alexjgriffith/Documents/lisp-game-jame-2020-spring/Art/sprite-sheets/samuel.aseprite": {
    "frame": { "x": 416, "y": 64, "w": 32, "h": 32 },
    "rotated": false,
    "trimmed": false,
    "spriteSourceSize": { "x": 0, "y": 0, "w": 32, "h": 32 },
    "sourceSize": { "w": 32, "h": 32 },
    "duration": 300
   },
   "/home/alexjgriffith/Documents/lisp-game-jame-2020-spring/Art/sprite-sheets/samuel.aseprite": {
    "frame": { "x": 448, "y": 64, "w": 32, "h": 32 },
    "rotated": false,
    "trimmed": false,
    "spriteSourceSize": { "x": 0, "y": 0, "w": 32, "h": 32 },
    "sourceSize": { "w": 32, "h": 32 },
    "duration": 100
   },
   "/home/alexjgriffith/Documents/lisp-game-jame-2020-spring/Art/sprite-sheets/samuel.aseprite": {
    "frame": { "x": 480, "y": 64, "w": 32, "h": 32 },
    "rotated": false,
    "trimmed": false,
    "spriteSourceSize": { "x": 0, "y": 0, "w": 32, "h": 32 },
    "sourceSize": { "w": 32, "h": 32 },
    "duration": 200
   },
   "/home/alexjgriffith/Documents/lisp-game-jame-2020-spring/Art/sprite-sheets/samuel.aseprite": {
    "frame": { "x": 512, "y": 64, "w": 32, "h": 32 },
    "rotated": false,
    "trimmed": false,
    "spriteSourceSize": { "x": 0, "y": 0, "w": 32, "h": 32 },
    "sourceSize": { "w": 32, "h": 32 },
    "duration": 150
   },
   "/home/alexjgriffith/Documents/lisp-game-jame-2020-spring/Art/sprite-sheets/samuel.aseprite": {
    "frame": { "x": 544, "y": 64, "w": 32, "h": 32 },
    "rotated": false,
    "trimmed": false,
    "spriteSourceSize": { "x": 0, "y": 0, "w": 32, "h": 32 },
    "sourceSize": { "w": 32, "h": 32 },
    "duration": 100
   },
   "/home/alexjgriffith/Documents/lisp-game-jame-2020-spring/Art/sprite-sheets/samuel.aseprite": {
    "frame": { "x": 576, "y": 64, "w": 32, "h": 32 },
    "rotated": false,
    "trimmed": false,
    "spriteSourceSize": { "x": 0, "y": 0, "w": 32, "h": 32 },
    "sourceSize": { "w": 32, "h": 32 },
    "duration": 100
   },
   "/home/alexjgriffith/Documents/lisp-game-jame-2020-spring/Art/sprite-sheets/samuel.aseprite": {
    "frame": { "x": 608, "y": 64, "w": 32, "h": 32 },
    "rotated": false,
    "trimmed": false,
    "spriteSourceSize": { "x": 0, "y": 0, "w": 32, "h": 32 },
    "sourceSize": { "w": 32, "h": 32 },
    "duration": 300
   },
   "/home/alexjgriffith/Documents/lisp-game-jame-2020-spring/Art/sprite-sheets/samuel.aseprite": {
    "frame": { "x": 640, "y": 64, "w": 32, "h": 32 },
    "rotated": false,
    "trimmed": false,
    "spriteSourceSize": { "x": 0, "y": 0, "w": 32, "h": 32 },
    "sourceSize": { "w": 32, "h": 32 },
    "duration": 300
   },
   "/home/alexjgriffith/Documents/lisp-game-jame-2020-spring/Art/sprite-sheets/samuel.aseprite": {
    "frame": { "x": 672, "y": 64, "w": 32, "h": 32 },
    "rotated": false,
    "trimmed": false,
    "spriteSourceSize": { "x": 0, "y": 0, "w": 32, "h": 32 },
    "sourceSize": { "w": 32, "h": 32 },
    "duration": 100
   },
   "/home/alexjgriffith/Documents/lisp-game-jame-2020-spring/Art/sprite-sheets/samuel.aseprite": {
    "frame": { "x": 0, "y": 96, "w": 32, "h": 32 },
    "rotated": false,
    "trimmed": false,
    "spriteSourceSize": { "x": 0, "y": 0, "w": 32, "h": 32 },
    "sourceSize": { "w": 32, "h": 32 },
    "duration": 200
   },
   "/home/alexjgriffith/Documents/lisp-game-jame-2020-spring/Art/sprite-sheets/samuel.aseprite": {
    "frame": { "x": 32, "y": 96, "w": 32, "h": 32 },
    "rotated": false,
    "trimmed": false,
    "spriteSourceSize": { "x": 0, "y": 0, "w": 32, "h": 32 },
    "sourceSize": { "w": 32, "h": 32 },
    "duration": 200
   },
   "/home/alexjgriffith/Documents/lisp-game-jame-2020-spring/Art/sprite-sheets/samuel.aseprite": {
    "frame": { "x": 64, "y": 96, "w": 32, "h": 32 },
    "rotated": false,
    "trimmed": false,
    "spriteSourceSize": { "x": 0, "y": 0, "w": 32, "h": 32 },
    "sourceSize": { "w": 32, "h": 32 },
    "duration": 200
   },
   "/home/alexjgriffith/Documents/lisp-game-jame-2020-spring/Art/sprite-sheets/samuel.aseprite": {
    "frame": { "x": 96, "y": 96, "w": 32, "h": 32 },
    "rotated": false,
    "trimmed": false,
    "spriteSourceSize": { "x": 0, "y": 0, "w": 32, "h": 32 },
    "sourceSize": { "w": 32, "h": 32 },
    "duration": 300
   },
   "/home/alexjgriffith/Documents/lisp-game-jame-2020-spring/Art/sprite-sheets/samuel.aseprite": {
    "frame": { "x": 128, "y": 96, "w": 32, "h": 32 },
    "rotated": false,
    "trimmed": false,
    "spriteSourceSize": { "x": 0, "y": 0, "w": 32, "h": 32 },
    "sourceSize": { "w": 32, "h": 32 },
    "duration": 200
   },
   "/home/alexjgriffith/Documents/lisp-game-jame-2020-spring/Art/sprite-sheets/samuel.aseprite": {
    "frame": { "x": 160, "y": 96, "w": 32, "h": 32 },
    "rotated": false,
    "trimmed": false,
    "spriteSourceSize": { "x": 0, "y": 0, "w": 32, "h": 32 },
    "sourceSize": { "w": 32, "h": 32 },
    "duration": 300
   },
   "/home/alexjgriffith/Documents/lisp-game-jame-2020-spring/Art/sprite-sheets/samuel.aseprite": {
    "frame": { "x": 192, "y": 96, "w": 32, "h": 32 },
    "rotated": false,
    "trimmed": false,
    "spriteSourceSize": { "x": 0, "y": 0, "w": 32, "h": 32 },
    "sourceSize": { "w": 32, "h": 32 },
    "duration": 300
   },
   "/home/alexjgriffith/Documents/lisp-game-jame-2020-spring/Art/sprite-sheets/samuel.aseprite": {
    "frame": { "x": 224, "y": 96, "w": 32, "h": 32 },
    "rotated": false,
    "trimmed": false,
    "spriteSourceSize": { "x": 0, "y": 0, "w": 32, "h": 32 },
    "sourceSize": { "w": 32, "h": 32 },
    "duration": 200
   },
   "/home/alexjgriffith/Documents/lisp-game-jame-2020-spring/Art/sprite-sheets/samuel.aseprite": {
    "frame": { "x": 256, "y": 96, "w": 32, "h": 32 },
    "rotated": false,
    "trimmed": false,
    "spriteSourceSize": { "x": 0, "y": 0, "w": 32, "h": 32 },
    "sourceSize": { "w": 32, "h": 32 },
    "duration": 300
   },
   "/home/alexjgriffith/Documents/lisp-game-jame-2020-spring/Art/sprite-sheets/samuel.aseprite": {
    "frame": { "x": 288, "y": 96, "w": 32, "h": 32 },
    "rotated": false,
    "trimmed": false,
    "spriteSourceSize": { "x": 0, "y": 0, "w": 32, "h": 32 },
    "sourceSize": { "w": 32, "h": 32 },
    "duration": 300
   },
   "/home/alexjgriffith/Documents/lisp-game-jame-2020-spring/Art/sprite-sheets/samuel.aseprite": {
    "frame": { "x": 320, "y": 96, "w": 32, "h": 32 },
    "rotated": false,
    "trimmed": false,
    "spriteSourceSize": { "x": 0, "y": 0, "w": 32, "h": 32 },
    "sourceSize": { "w": 32, "h": 32 },
    "duration": 200
   },
   "/home/alexjgriffith/Documents/lisp-game-jame-2020-spring/Art/sprite-sheets/samuel.aseprite": {
    "frame": { "x": 352, "y": 96, "w": 32, "h": 32 },
    "rotated": false,
    "trimmed": false,
    "spriteSourceSize": { "x": 0, "y": 0, "w": 32, "h": 32 },
    "sourceSize": { "w": 32, "h": 32 },
    "duration": 300
   },
   "/home/alexjgriffith/Documents/lisp-game-jame-2020-spring/Art/sprite-sheets/samuel.aseprite": {
    "frame": { "x": 384, "y": 96, "w": 32, "h": 32 },
    "rotated": false,
    "trimmed": false,
    "spriteSourceSize": { "x": 0, "y": 0, "w": 32, "h": 32 },
    "sourceSize": { "w": 32, "h": 32 },
    "duration": 200
   },
   "/home/alexjgriffith/Documents/lisp-game-jame-2020-spring/Art/sprite-sheets/samuel.aseprite": {
    "frame": { "x": 416, "y": 96, "w": 32, "h": 32 },
    "rotated": false,
    "trimmed": false,
    "spriteSourceSize": { "x": 0, "y": 0, "w": 32, "h": 32 },
    "sourceSize": { "w": 32, "h": 32 },
    "duration": 300
   },
   "/home/alexjgriffith/Documents/lisp-game-jame-2020-spring/Art/sprite-sheets/samuel.aseprite": {
    "frame": { "x": 448, "y": 96, "w": 32, "h": 32 },
    "rotated": false,
    "trimmed": false,
    "spriteSourceSize": { "x": 0, "y": 0, "w": 32, "h": 32 },
    "sourceSize": { "w": 32, "h": 32 },
    "duration": 100
   },
   "/home/alexjgriffith/Documents/lisp-game-jame-2020-spring/Art/sprite-sheets/samuel.aseprite": {
    "frame": { "x": 480, "y": 96, "w": 32, "h": 32 },
    "rotated": false,
    "trimmed": false,
    "spriteSourceSize": { "x": 0, "y": 0, "w": 32, "h": 32 },
    "sourceSize": { "w": 32, "h": 32 },
    "duration": 200
   },
   "/home/alexjgriffith/Documents/lisp-game-jame-2020-spring/Art/sprite-sheets/samuel.aseprite": {
    "frame": { "x": 512, "y": 96, "w": 32, "h": 32 },
    "rotated": false,
    "trimmed": false,
    "spriteSourceSize": { "x": 0, "y": 0, "w": 32, "h": 32 },
    "sourceSize": { "w": 32, "h": 32 },
    "duration": 150
   },
   "/home/alexjgriffith/Documents/lisp-game-jame-2020-spring/Art/sprite-sheets/samuel.aseprite": {
    "frame": { "x": 544, "y": 96, "w": 32, "h": 32 },
    "rotated": false,
    "trimmed": false,
    "spriteSourceSize": { "x": 0, "y": 0, "w": 32, "h": 32 },
    "sourceSize": { "w": 32, "h": 32 },
    "duration": 100
   },
   "/home/alexjgriffith/Documents/lisp-game-jame-2020-spring/Art/sprite-sheets/samuel.aseprite": {
    "frame": { "x": 576, "y": 96, "w": 32, "h": 32 },
    "rotated": false,
    "trimmed": false,
    "spriteSourceSize": { "x": 0, "y": 0, "w": 32, "h": 32 },
    "sourceSize": { "w": 32, "h": 32 },
    "duration": 100
   },
   "/home/alexjgriffith/Documents/lisp-game-jame-2020-spring/Art/sprite-sheets/samuel.aseprite": {
    "frame": { "x": 608, "y": 96, "w": 32, "h": 32 },
    "rotated": false,
    "trimmed": false,
    "spriteSourceSize": { "x": 0, "y": 0, "w": 32, "h": 32 },
    "sourceSize": { "w": 32, "h": 32 },
    "duration": 300
   },
   "/home/alexjgriffith/Documents/lisp-game-jame-2020-spring/Art/sprite-sheets/samuel.aseprite": {
    "frame": { "x": 640, "y": 96, "w": 32, "h": 32 },
    "rotated": false,
    "trimmed": false,
    "spriteSourceSize": { "x": 0, "y": 0, "w": 32, "h": 32 },
    "sourceSize": { "w": 32, "h": 32 },
    "duration": 300
   },
   "/home/alexjgriffith/Documents/lisp-game-jame-2020-spring/Art/sprite-sheets/samuel.aseprite": {
    "frame": { "x": 672, "y": 96, "w": 32, "h": 32 },
    "rotated": false,
    "trimmed": false,
    "spriteSourceSize": { "x": 0, "y": 0, "w": 32, "h": 32 },
    "sourceSize": { "w": 32, "h": 32 },
    "duration": 100
   },
   "/home/alexjgriffith/Documents/lisp-game-jame-2020-spring/Art/sprite-sheets/samuel.aseprite": {
    "frame": { "x": 0, "y": 128, "w": 32, "h": 32 },
    "rotated": false,
    "trimmed": false,
    "spriteSourceSize": { "x": 0, "y": 0, "w": 32, "h": 32 },
    "sourceSize": { "w": 32, "h": 32 },
    "duration": 200
   },
   "/home/alexjgriffith/Documents/lisp-game-jame-2020-spring/Art/sprite-sheets/samuel.aseprite": {
    "frame": { "x": 32, "y": 128, "w": 32, "h": 32 },
    "rotated": false,
    "trimmed": false,
    "spriteSourceSize": { "x": 0, "y": 0, "w": 32, "h": 32 },
    "sourceSize": { "w": 32, "h": 32 },
    "duration": 200
   },
   "/home/alexjgriffith/Documents/lisp-game-jame-2020-spring/Art/sprite-sheets/samuel.aseprite": {
    "frame": { "x": 64, "y": 128, "w": 32, "h": 32 },
    "rotated": false,
    "trimmed": false,
    "spriteSourceSize": { "x": 0, "y": 0, "w": 32, "h": 32 },
    "sourceSize": { "w": 32, "h": 32 },
    "duration": 200
   },
   "/home/alexjgriffith/Documents/lisp-game-jame-2020-spring/Art/sprite-sheets/samuel.aseprite": {
    "frame": { "x": 96, "y": 128, "w": 32, "h": 32 },
    "rotated": false,
    "trimmed": false,
    "spriteSourceSize": { "x": 0, "y": 0, "w": 32, "h": 32 },
    "sourceSize": { "w": 32, "h": 32 },
    "duration": 300
   },
   "/home/alexjgriffith/Documents/lisp-game-jame-2020-spring/Art/sprite-sheets/samuel.aseprite": {
    "frame": { "x": 128, "y": 128, "w": 32, "h": 32 },
    "rotated": false,
    "trimmed": false,
    "spriteSourceSize": { "x": 0, "y": 0, "w": 32, "h": 32 },
    "sourceSize": { "w": 32, "h": 32 },
    "duration": 200
   },
   "/home/alexjgriffith/Documents/lisp-game-jame-2020-spring/Art/sprite-sheets/samuel.aseprite": {
    "frame": { "x": 160, "y": 128, "w": 32, "h": 32 },
    "rotated": false,
    "trimmed": false,
    "spriteSourceSize": { "x": 0, "y": 0, "w": 32, "h": 32 },
    "sourceSize": { "w": 32, "h": 32 },
    "duration": 300
   },
   "/home/alexjgriffith/Documents/lisp-game-jame-2020-spring/Art/sprite-sheets/samuel.aseprite": {
    "frame": { "x": 192, "y": 128, "w": 32, "h": 32 },
    "rotated": false,
    "trimmed": false,
    "spriteSourceSize": { "x": 0, "y": 0, "w": 32, "h": 32 },
    "sourceSize": { "w": 32, "h": 32 },
    "duration": 300
   },
   "/home/alexjgriffith/Documents/lisp-game-jame-2020-spring/Art/sprite-sheets/samuel.aseprite": {
    "frame": { "x": 224, "y": 128, "w": 32, "h": 32 },
    "rotated": false,
    "trimmed": false,
    "spriteSourceSize": { "x": 0, "y": 0, "w": 32, "h": 32 },
    "sourceSize": { "w": 32, "h": 32 },
    "duration": 200
   },
   "/home/alexjgriffith/Documents/lisp-game-jame-2020-spring/Art/sprite-sheets/samuel.aseprite": {
    "frame": { "x": 256, "y": 128, "w": 32, "h": 32 },
    "rotated": false,
    "trimmed": false,
    "spriteSourceSize": { "x": 0, "y": 0, "w": 32, "h": 32 },
    "sourceSize": { "w": 32, "h": 32 },
    "duration": 300
   },
   "/home/alexjgriffith/Documents/lisp-game-jame-2020-spring/Art/sprite-sheets/samuel.aseprite": {
    "frame": { "x": 288, "y": 128, "w": 32, "h": 32 },
    "rotated": false,
    "trimmed": false,
    "spriteSourceSize": { "x": 0, "y": 0, "w": 32, "h": 32 },
    "sourceSize": { "w": 32, "h": 32 },
    "duration": 300
   },
   "/home/alexjgriffith/Documents/lisp-game-jame-2020-spring/Art/sprite-sheets/samuel.aseprite": {
    "frame": { "x": 320, "y": 128, "w": 32, "h": 32 },
    "rotated": false,
    "trimmed": false,
    "spriteSourceSize": { "x": 0, "y": 0, "w": 32, "h": 32 },
    "sourceSize": { "w": 32, "h": 32 },
    "duration": 200
   },
   "/home/alexjgriffith/Documents/lisp-game-jame-2020-spring/Art/sprite-sheets/samuel.aseprite": {
    "frame": { "x": 352, "y": 128, "w": 32, "h": 32 },
    "rotated": false,
    "trimmed": false,
    "spriteSourceSize": { "x": 0, "y": 0, "w": 32, "h": 32 },
    "sourceSize": { "w": 32, "h": 32 },
    "duration": 300
   },
   "/home/alexjgriffith/Documents/lisp-game-jame-2020-spring/Art/sprite-sheets/samuel.aseprite": {
    "frame": { "x": 384, "y": 128, "w": 32, "h": 32 },
    "rotated": false,
    "trimmed": false,
    "spriteSourceSize": { "x": 0, "y": 0, "w": 32, "h": 32 },
    "sourceSize": { "w": 32, "h": 32 },
    "duration": 200
   },
   "/home/alexjgriffith/Documents/lisp-game-jame-2020-spring/Art/sprite-sheets/samuel.aseprite": {
    "frame": { "x": 416, "y": 128, "w": 32, "h": 32 },
    "rotated": false,
    "trimmed": false,
    "spriteSourceSize": { "x": 0, "y": 0, "w": 32, "h": 32 },
    "sourceSize": { "w": 32, "h": 32 },
    "duration": 300
   },
   "/home/alexjgriffith/Documents/lisp-game-jame-2020-spring/Art/sprite-sheets/samuel.aseprite": {
    "frame": { "x": 448, "y": 128, "w": 32, "h": 32 },
    "rotated": false,
    "trimmed": false,
    "spriteSourceSize": { "x": 0, "y": 0, "w": 32, "h": 32 },
    "sourceSize": { "w": 32, "h": 32 },
    "duration": 100
   },
   "/home/alexjgriffith/Documents/lisp-game-jame-2020-spring/Art/sprite-sheets/samuel.aseprite": {
    "frame": { "x": 480, "y": 128, "w": 32, "h": 32 },
    "rotated": false,
    "trimmed": false,
    "spriteSourceSize": { "x": 0, "y": 0, "w": 32, "h": 32 },
    "sourceSize": { "w": 32, "h": 32 },
    "duration": 200
   },
   "/home/alexjgriffith/Documents/lisp-game-jame-2020-spring/Art/sprite-sheets/samuel.aseprite": {
    "frame": { "x": 512, "y": 128, "w": 32, "h": 32 },
    "rotated": false,
    "trimmed": false,
    "spriteSourceSize": { "x": 0, "y": 0, "w": 32, "h": 32 },
    "sourceSize": { "w": 32, "h": 32 },
    "duration": 150
   },
   "/home/alexjgriffith/Documents/lisp-game-jame-2020-spring/Art/sprite-sheets/samuel.aseprite": {
    "frame": { "x": 544, "y": 128, "w": 32, "h": 32 },
    "rotated": false,
    "trimmed": false,
    "spriteSourceSize": { "x": 0, "y": 0, "w": 32, "h": 32 },
    "sourceSize": { "w": 32, "h": 32 },
    "duration": 100
   },
   "/home/alexjgriffith/Documents/lisp-game-jame-2020-spring/Art/sprite-sheets/samuel.aseprite": {
    "frame": { "x": 576, "y": 128, "w": 32, "h": 32 },
    "rotated": false,
    "trimmed": false,
    "spriteSourceSize": { "x": 0, "y": 0, "w": 32, "h": 32 },
    "sourceSize": { "w": 32, "h": 32 },
    "duration": 100
   },
   "/home/alexjgriffith/Documents/lisp-game-jame-2020-spring/Art/sprite-sheets/samuel.aseprite": {
    "frame": { "x": 608, "y": 128, "w": 32, "h": 32 },
    "rotated": false,
    "trimmed": false,
    "spriteSourceSize": { "x": 0, "y": 0, "w": 32, "h": 32 },
    "sourceSize": { "w": 32, "h": 32 },
    "duration": 300
   },
   "/home/alexjgriffith/Documents/lisp-game-jame-2020-spring/Art/sprite-sheets/samuel.aseprite": {
    "frame": { "x": 640, "y": 128, "w": 32, "h": 32 },
    "rotated": false,
    "trimmed": false,
    "spriteSourceSize": { "x": 0, "y": 0, "w": 32, "h": 32 },
    "sourceSize": { "w": 32, "h": 32 },
    "duration": 300
   },
   "/home/alexjgriffith/Documents/lisp-game-jame-2020-spring/Art/sprite-sheets/samuel.aseprite": {
    "frame": { "x": 672, "y": 128, "w": 32, "h": 32 },
    "rotated": false,
    "trimmed": false,
    "spriteSourceSize": { "x": 0, "y": 0, "w": 32, "h": 32 },
    "sourceSize": { "w": 32, "h": 32 },
    "duration": 100
   },
   "/home/alexjgriffith/Documents/lisp-game-jame-2020-spring/Art/sprite-sheets/samuel.aseprite": {
    "frame": { "x": 0, "y": 160, "w": 32, "h": 32 },
    "rotated": false,
    "trimmed": false,
    "spriteSourceSize": { "x": 0, "y": 0, "w": 32, "h": 32 },
    "sourceSize": { "w": 32, "h": 32 },
    "duration": 200
   },
   "/home/alexjgriffith/Documents/lisp-game-jame-2020-spring/Art/sprite-sheets/samuel.aseprite": {
    "frame": { "x": 32, "y": 160, "w": 32, "h": 32 },
    "rotated": false,
    "trimmed": false,
    "spriteSourceSize": { "x": 0, "y": 0, "w": 32, "h": 32 },
    "sourceSize": { "w": 32, "h": 32 },
    "duration": 200
   },
   "/home/alexjgriffith/Documents/lisp-game-jame-2020-spring/Art/sprite-sheets/samuel.aseprite": {
    "frame": { "x": 64, "y": 160, "w": 32, "h": 32 },
    "rotated": false,
    "trimmed": false,
    "spriteSourceSize": { "x": 0, "y": 0, "w": 32, "h": 32 },
    "sourceSize": { "w": 32, "h": 32 },
    "duration": 200
   },
   "/home/alexjgriffith/Documents/lisp-game-jame-2020-spring/Art/sprite-sheets/samuel.aseprite": {
    "frame": { "x": 96, "y": 160, "w": 32, "h": 32 },
    "rotated": false,
    "trimmed": false,
    "spriteSourceSize": { "x": 0, "y": 0, "w": 32, "h": 32 },
    "sourceSize": { "w": 32, "h": 32 },
    "duration": 300
   },
   "/home/alexjgriffith/Documents/lisp-game-jame-2020-spring/Art/sprite-sheets/samuel.aseprite": {
    "frame": { "x": 128, "y": 160, "w": 32, "h": 32 },
    "rotated": false,
    "trimmed": false,
    "spriteSourceSize": { "x": 0, "y": 0, "w": 32, "h": 32 },
    "sourceSize": { "w": 32, "h": 32 },
    "duration": 200
   },
   "/home/alexjgriffith/Documents/lisp-game-jame-2020-spring/Art/sprite-sheets/samuel.aseprite": {
    "frame": { "x": 160, "y": 160, "w": 32, "h": 32 },
    "rotated": false,
    "trimmed": false,
    "spriteSourceSize": { "x": 0, "y": 0, "w": 32, "h": 32 },
    "sourceSize": { "w": 32, "h": 32 },
    "duration": 300
   },
   "/home/alexjgriffith/Documents/lisp-game-jame-2020-spring/Art/sprite-sheets/samuel.aseprite": {
    "frame": { "x": 192, "y": 160, "w": 32, "h": 32 },
    "rotated": false,
    "trimmed": false,
    "spriteSourceSize": { "x": 0, "y": 0, "w": 32, "h": 32 },
    "sourceSize": { "w": 32, "h": 32 },
    "duration": 300
   },
   "/home/alexjgriffith/Documents/lisp-game-jame-2020-spring/Art/sprite-sheets/samuel.aseprite": {
    "frame": { "x": 224, "y": 160, "w": 32, "h": 32 },
    "rotated": false,
    "trimmed": false,
    "spriteSourceSize": { "x": 0, "y": 0, "w": 32, "h": 32 },
    "sourceSize": { "w": 32, "h": 32 },
    "duration": 200
   },
   "/home/alexjgriffith/Documents/lisp-game-jame-2020-spring/Art/sprite-sheets/samuel.aseprite": {
    "frame": { "x": 256, "y": 160, "w": 32, "h": 32 },
    "rotated": false,
    "trimmed": false,
    "spriteSourceSize": { "x": 0, "y": 0, "w": 32, "h": 32 },
    "sourceSize": { "w": 32, "h": 32 },
    "duration": 300
   },
   "/home/alexjgriffith/Documents/lisp-game-jame-2020-spring/Art/sprite-sheets/samuel.aseprite": {
    "frame": { "x": 288, "y": 160, "w": 32, "h": 32 },
    "rotated": false,
    "trimmed": false,
    "spriteSourceSize": { "x": 0, "y": 0, "w": 32, "h": 32 },
    "sourceSize": { "w": 32, "h": 32 },
    "duration": 300
   },
   "/home/alexjgriffith/Documents/lisp-game-jame-2020-spring/Art/sprite-sheets/samuel.aseprite": {
    "frame": { "x": 320, "y": 160, "w": 32, "h": 32 },
    "rotated": false,
    "trimmed": false,
    "spriteSourceSize": { "x": 0, "y": 0, "w": 32, "h": 32 },
    "sourceSize": { "w": 32, "h": 32 },
    "duration": 200
   },
   "/home/alexjgriffith/Documents/lisp-game-jame-2020-spring/Art/sprite-sheets/samuel.aseprite": {
    "frame": { "x": 352, "y": 160, "w": 32, "h": 32 },
    "rotated": false,
    "trimmed": false,
    "spriteSourceSize": { "x": 0, "y": 0, "w": 32, "h": 32 },
    "sourceSize": { "w": 32, "h": 32 },
    "duration": 300
   },
   "/home/alexjgriffith/Documents/lisp-game-jame-2020-spring/Art/sprite-sheets/samuel.aseprite": {
    "frame": { "x": 384, "y": 160, "w": 32, "h": 32 },
    "rotated": false,
    "trimmed": false,
    "spriteSourceSize": { "x": 0, "y": 0, "w": 32, "h": 32 },
    "sourceSize": { "w": 32, "h": 32 },
    "duration": 200
   },
   "/home/alexjgriffith/Documents/lisp-game-jame-2020-spring/Art/sprite-sheets/samuel.aseprite": {
    "frame": { "x": 416, "y": 160, "w": 32, "h": 32 },
    "rotated": false,
    "trimmed": false,
    "spriteSourceSize": { "x": 0, "y": 0, "w": 32, "h": 32 },
    "sourceSize": { "w": 32, "h": 32 },
    "duration": 300
   },
   "/home/alexjgriffith/Documents/lisp-game-jame-2020-spring/Art/sprite-sheets/samuel.aseprite": {
    "frame": { "x": 448, "y": 160, "w": 32, "h": 32 },
    "rotated": false,
    "trimmed": false,
    "spriteSourceSize": { "x": 0, "y": 0, "w": 32, "h": 32 },
    "sourceSize": { "w": 32, "h": 32 },
    "duration": 100
   },
   "/home/alexjgriffith/Documents/lisp-game-jame-2020-spring/Art/sprite-sheets/samuel.aseprite": {
    "frame": { "x": 480, "y": 160, "w": 32, "h": 32 },
    "rotated": false,
    "trimmed": false,
    "spriteSourceSize": { "x": 0, "y": 0, "w": 32, "h": 32 },
    "sourceSize": { "w": 32, "h": 32 },
    "duration": 200
   },
   "/home/alexjgriffith/Documents/lisp-game-jame-2020-spring/Art/sprite-sheets/samuel.aseprite": {
    "frame": { "x": 512, "y": 160, "w": 32, "h": 32 },
    "rotated": false,
    "trimmed": false,
    "spriteSourceSize": { "x": 0, "y": 0, "w": 32, "h": 32 },
    "sourceSize": { "w": 32, "h": 32 },
    "duration": 150
   },
   "/home/alexjgriffith/Documents/lisp-game-jame-2020-spring/Art/sprite-sheets/samuel.aseprite": {
    "frame": { "x": 544, "y": 160, "w": 32, "h": 32 },
    "rotated": false,
    "trimmed": false,
    "spriteSourceSize": { "x": 0, "y": 0, "w": 32, "h": 32 },
    "sourceSize": { "w": 32, "h": 32 },
    "duration": 100
   },
   "/home/alexjgriffith/Documents/lisp-game-jame-2020-spring/Art/sprite-sheets/samuel.aseprite": {
    "frame": { "x": 576, "y": 160, "w": 32, "h": 32 },
    "rotated": false,
    "trimmed": false,
    "spriteSourceSize": { "x": 0, "y": 0, "w": 32, "h": 32 },
    "sourceSize": { "w": 32, "h": 32 },
    "duration": 100
   },
   "/home/alexjgriffith/Documents/lisp-game-jame-2020-spring/Art/sprite-sheets/samuel.aseprite": {
    "frame": { "x": 608, "y": 160, "w": 32, "h": 32 },
    "rotated": false,
    "trimmed": false,
    "spriteSourceSize": { "x": 0, "y": 0, "w": 32, "h": 32 },
    "sourceSize": { "w": 32, "h": 32 },
    "duration": 300
   },
   "/home/alexjgriffith/Documents/lisp-game-jame-2020-spring/Art/sprite-sheets/samuel.aseprite": {
    "frame": { "x": 640, "y": 160, "w": 32, "h": 32 },
    "rotated": false,
    "trimmed": false,
    "spriteSourceSize": { "x": 0, "y": 0, "w": 32, "h": 32 },
    "sourceSize": { "w": 32, "h": 32 },
    "duration": 300
   },
   "/home/alexjgriffith/Documents/lisp-game-jame-2020-spring/Art/sprite-sheets/samuel.aseprite": {
    "frame": { "x": 672, "y": 160, "w": 32, "h": 32 },
    "rotated": false,
    "trimmed": false,
    "spriteSourceSize": { "x": 0, "y": 0, "w": 32, "h": 32 },
    "sourceSize": { "w": 32, "h": 32 },
    "duration": 100
   },
   "/home/alexjgriffith/Documents/lisp-game-jame-2020-spring/Art/sprite-sheets/samuel.aseprite": {
    "frame": { "x": 0, "y": 192, "w": 32, "h": 32 },
    "rotated": false,
    "trimmed": false,
    "spriteSourceSize": { "x": 0, "y": 0, "w": 32, "h": 32 },
    "sourceSize": { "w": 32, "h": 32 },
    "duration": 200
   },
   "/home/alexjgriffith/Documents/lisp-game-jame-2020-spring/Art/sprite-sheets/samuel.aseprite": {
    "frame": { "x": 32, "y": 192, "w": 32, "h": 32 },
    "rotated": false,
    "trimmed": false,
    "spriteSourceSize": { "x": 0, "y": 0, "w": 32, "h": 32 },
    "sourceSize": { "w": 32, "h": 32 },
    "duration": 200
   },
   "/home/alexjgriffith/Documents/lisp-game-jame-2020-spring/Art/sprite-sheets/samuel.aseprite": {
    "frame": { "x": 64, "y": 192, "w": 32, "h": 32 },
    "rotated": false,
    "trimmed": false,
    "spriteSourceSize": { "x": 0, "y": 0, "w": 32, "h": 32 },
    "sourceSize": { "w": 32, "h": 32 },
    "duration": 200
   },
   "/home/alexjgriffith/Documents/lisp-game-jame-2020-spring/Art/sprite-sheets/samuel.aseprite": {
    "frame": { "x": 96, "y": 192, "w": 32, "h": 32 },
    "rotated": false,
    "trimmed": false,
    "spriteSourceSize": { "x": 0, "y": 0, "w": 32, "h": 32 },
    "sourceSize": { "w": 32, "h": 32 },
    "duration": 300
   },
   "/home/alexjgriffith/Documents/lisp-game-jame-2020-spring/Art/sprite-sheets/samuel.aseprite": {
    "frame": { "x": 128, "y": 192, "w": 32, "h": 32 },
    "rotated": false,
    "trimmed": false,
    "spriteSourceSize": { "x": 0, "y": 0, "w": 32, "h": 32 },
    "sourceSize": { "w": 32, "h": 32 },
    "duration": 200
   },
   "/home/alexjgriffith/Documents/lisp-game-jame-2020-spring/Art/sprite-sheets/samuel.aseprite": {
    "frame": { "x": 160, "y": 192, "w": 32, "h": 32 },
    "rotated": false,
    "trimmed": false,
    "spriteSourceSize": { "x": 0, "y": 0, "w": 32, "h": 32 },
    "sourceSize": { "w": 32, "h": 32 },
    "duration": 300
   },
   "/home/alexjgriffith/Documents/lisp-game-jame-2020-spring/Art/sprite-sheets/samuel.aseprite": {
    "frame": { "x": 192, "y": 192, "w": 32, "h": 32 },
    "rotated": false,
    "trimmed": false,
    "spriteSourceSize": { "x": 0, "y": 0, "w": 32, "h": 32 },
    "sourceSize": { "w": 32, "h": 32 },
    "duration": 300
   },
   "/home/alexjgriffith/Documents/lisp-game-jame-2020-spring/Art/sprite-sheets/samuel.aseprite": {
    "frame": { "x": 224, "y": 192, "w": 32, "h": 32 },
    "rotated": false,
    "trimmed": false,
    "spriteSourceSize": { "x": 0, "y": 0, "w": 32, "h": 32 },
    "sourceSize": { "w": 32, "h": 32 },
    "duration": 200
   },
   "/home/alexjgriffith/Documents/lisp-game-jame-2020-spring/Art/sprite-sheets/samuel.aseprite": {
    "frame": { "x": 256, "y": 192, "w": 32, "h": 32 },
    "rotated": false,
    "trimmed": false,
    "spriteSourceSize": { "x": 0, "y": 0, "w": 32, "h": 32 },
    "sourceSize": { "w": 32, "h": 32 },
    "duration": 300
   },
   "/home/alexjgriffith/Documents/lisp-game-jame-2020-spring/Art/sprite-sheets/samuel.aseprite": {
    "frame": { "x": 288, "y": 192, "w": 32, "h": 32 },
    "rotated": false,
    "trimmed": false,
    "spriteSourceSize": { "x": 0, "y": 0, "w": 32, "h": 32 },
    "sourceSize": { "w": 32, "h": 32 },
    "duration": 300
   },
   "/home/alexjgriffith/Documents/lisp-game-jame-2020-spring/Art/sprite-sheets/samuel.aseprite": {
    "frame": { "x": 320, "y": 192, "w": 32, "h": 32 },
    "rotated": false,
    "trimmed": false,
    "spriteSourceSize": { "x": 0, "y": 0, "w": 32, "h": 32 },
    "sourceSize": { "w": 32, "h": 32 },
    "duration": 200
   },
   "/home/alexjgriffith/Documents/lisp-game-jame-2020-spring/Art/sprite-sheets/samuel.aseprite": {
    "frame": { "x": 352, "y": 192, "w": 32, "h": 32 },
    "rotated": false,
    "trimmed": false,
    "spriteSourceSize": { "x": 0, "y": 0, "w": 32, "h": 32 },
    "sourceSize": { "w": 32, "h": 32 },
    "duration": 300
   },
   "/home/alexjgriffith/Documents/lisp-game-jame-2020-spring/Art/sprite-sheets/samuel.aseprite": {
    "frame": { "x": 384, "y": 192, "w": 32, "h": 32 },
    "rotated": false,
    "trimmed": false,
    "spriteSourceSize": { "x": 0, "y": 0, "w": 32, "h": 32 },
    "sourceSize": { "w": 32, "h": 32 },
    "duration": 200
   },
   "/home/alexjgriffith/Documents/lisp-game-jame-2020-spring/Art/sprite-sheets/samuel.aseprite": {
    "frame": { "x": 416, "y": 192, "w": 32, "h": 32 },
    "rotated": false,
    "trimmed": false,
    "spriteSourceSize": { "x": 0, "y": 0, "w": 32, "h": 32 },
    "sourceSize": { "w": 32, "h": 32 },
    "duration": 300
   },
   "/home/alexjgriffith/Documents/lisp-game-jame-2020-spring/Art/sprite-sheets/samuel.aseprite": {
    "frame": { "x": 448, "y": 192, "w": 32, "h": 32 },
    "rotated": false,
    "trimmed": false,
    "spriteSourceSize": { "x": 0, "y": 0, "w": 32, "h": 32 },
    "sourceSize": { "w": 32, "h": 32 },
    "duration": 100
   },
   "/home/alexjgriffith/Documents/lisp-game-jame-2020-spring/Art/sprite-sheets/samuel.aseprite": {
    "frame": { "x": 480, "y": 192, "w": 32, "h": 32 },
    "rotated": false,
    "trimmed": false,
    "spriteSourceSize": { "x": 0, "y": 0, "w": 32, "h": 32 },
    "sourceSize": { "w": 32, "h": 32 },
    "duration": 200
   },
   "/home/alexjgriffith/Documents/lisp-game-jame-2020-spring/Art/sprite-sheets/samuel.aseprite": {
    "frame": { "x": 512, "y": 192, "w": 32, "h": 32 },
    "rotated": false,
    "trimmed": false,
    "spriteSourceSize": { "x": 0, "y": 0, "w": 32, "h": 32 },
    "sourceSize": { "w": 32, "h": 32 },
    "duration": 150
   },
   "/home/alexjgriffith/Documents/lisp-game-jame-2020-spring/Art/sprite-sheets/samuel.aseprite": {
    "frame": { "x": 544, "y": 192, "w": 32, "h": 32 },
    "rotated": false,
    "trimmed": false,
    "spriteSourceSize": { "x": 0, "y": 0, "w": 32, "h": 32 },
    "sourceSize": { "w": 32, "h": 32 },
    "duration": 100
   },
   "/home/alexjgriffith/Documents/lisp-game-jame-2020-spring/Art/sprite-sheets/samuel.aseprite": {
    "frame": { "x": 576, "y": 192, "w": 32, "h": 32 },
    "rotated": false,
    "trimmed": false,
    "spriteSourceSize": { "x": 0, "y": 0, "w": 32, "h": 32 },
    "sourceSize": { "w": 32, "h": 32 },
    "duration": 100
   },
   "/home/alexjgriffith/Documents/lisp-game-jame-2020-spring/Art/sprite-sheets/samuel.aseprite": {
    "frame": { "x": 608, "y": 192, "w": 32, "h": 32 },
    "rotated": false,
    "trimmed": false,
    "spriteSourceSize": { "x": 0, "y": 0, "w": 32, "h": 32 },
    "sourceSize": { "w": 32, "h": 32 },
    "duration": 300
   },
   "/home/alexjgriffith/Documents/lisp-game-jame-2020-spring/Art/sprite-sheets/samuel.aseprite": {
    "frame": { "x": 640, "y": 192, "w": 32, "h": 32 },
    "rotated": false,
    "trimmed": false,
    "spriteSourceSize": { "x": 0, "y": 0, "w": 32, "h": 32 },
    "sourceSize": { "w": 32, "h": 32 },
    "duration": 300
   },
   "/home/alexjgriffith/Documents/lisp-game-jame-2020-spring/Art/sprite-sheets/samuel.aseprite": {
    "frame": { "x": 672, "y": 192, "w": 32, "h": 32 },
    "rotated": false,
    "trimmed": false,
    "spriteSourceSize": { "x": 0, "y": 0, "w": 32, "h": 32 },
    "sourceSize": { "w": 32, "h": 32 },
    "duration": 100
   }
 },
 "meta": {
  "app": "http://www.aseprite.org/",
  "version": "1.2.16.3-x64",
  "image": "samuel.png",
  "format": "I8",
  "size": { "w": 704, "h": 224 },
  "scale": "1"
 }
}
